4 Introduction to Data Carpentry | PSY317L Guides
…
You can create new datasets from filtered data.

female <- df %>% 
  filter(sex == "female")

4.3 select()

Use %>% then select to just select the rows you want.

df %>%  
  select(ids, sex, smoker,hrate)

## # A tibble: 30 x 4
##    ids   sex    smoker hrate
##    <chr> <chr>  <chr>  <int>
##  1 JEC   female no        63
##  2 GBH   male   yes       73
##  3 EDH   female no        65
##  4 AAA   female no        66
##  5 AJF   female no        67
##  6 FJC   female yes       80
##  7 IEE   female no        71
##  8 BED   female no        62
##  9 BFB   female no        68
## 10 IEA   female yes       74
## # ... with 20 more rows

Or if you just want to get rid of one column you can just use %>% then select(-var)

df %>% select(-bpsyst)

## # A tibble: 30 x 10
##    ids     age sex   state children smoker hrate cellcount immuncount
##    <chr> <int> <chr> <chr>    <int> <chr>  <int>     <dbl>      <dbl>
##  1 JEC      19 fema~ NJ           1 no        63     0.126      0.993
##  2 GBH      20 male  NY           1 yes       73     0.169      1.18 
##  3 EDH      21 fema~ NJ           0 no        65     0.281      4.34 
##  4 AAA      21 fema~ CT           3 no        66     0.244      2.56 
##  5 AJF      24 fema~ NJ           0 no        67     0.092      6.45 
##  6 FJC      25 fema~ NY           1 yes       80     0.014      3.97 
##  7 IEE      26 fema~ NY           2 no        71     0.093      5.41 
##  8 BED      28 fema~ CT           0 no        62     0.082      1.18 
##  9 BFB      28 fema~ NJ           0 no        68     0.197      0.724
## 10 IEA      29 fema~ CT           0 yes       74     0.429      5.15 
## # ... with 20 more rows, and 1 more variable: immuncount2 <dbl>
…
